err.vcd
$date
	Mon Jul 14 01:48:19 2025
$end
$version
	Icarus Verilog
$end
$timescale
	1ps
$end
$scope module error_tb $end
$var wire 7 ! data_out [6:0] $end
$var reg 1 " clk $end
$var reg 7 # data_in [6:0] $end
$var reg 1 $ enable $end
$var reg 1 % mode $end
$var reg 1 & rst_n $end
$scope module uut $end
$var wire 1 " clk $end
$var wire 7 ' data_in [6:0] $end
$var wire 1 $ enable $end
$var wire 1 % mode $end
$var wire 1 ( p1_even $end
$var wire 1 ) p2_even $end
$var wire 1 * p4_even $end
$var wire 1 & rst_n $end
$var wire 3 + correction [2:0] $end
$var parameter 3 , DONE $end
$var parameter 3 - IDLE $end
$var parameter 3 . P1 $end
$var parameter 3 / P2 $end
$var parameter 3 0 P4 $end
$var reg 7 1 data_out [6:0] $end
$var reg 1 2 p1 $end
$var reg 1 3 p2 $end
$var reg 1 4 p4 $end
$var reg 3 5 parity [2:0] $end
$upscope $end
$scope task load_data $end
$var reg 7 6 entry_data [6:0] $end
$upscope $end
$upscope $end
$enddefinitions $end
$comment Show the parameter values. $end
$dumpall
b100 0
b10 /
b1 .
b0 -
b111 ,
$end
#0
$dumpvars
b1101110 6
bx 5
x4
x3
x2
bx 1
bx +
x*
x)
x(
bx '
x&
x%
x$
bx #
0"
bx !
$end
#1
b0 5
14
13
b110 +
02
b1101110 !
b1101110 1
0(
1)
0*
b1101110 #
b1101110 '
0&
1"
#2
0"
#3
1&
1"
#4
0"
#5
b1 5
0%
1$
1"
#6
0"
#7
b10 5
b111 +
12
0$
1"
#8
0"
#9
b100 5
1"
#10
0"
#11
b111 5
b11 +
04
1"
#12
0"
#13
b0 5
b1101010 !
b1101010 1
1"
#14
0"
#15
1"
#16
0"
#17
14
b110 +
02
b1101110 !
b1101110 1
0&
1"
#18
0"
#19
1&
1"
#20
0"
#21
b1 5
1%
1$
1"
#22
0"
#23
b10 5
0$
1"
#24
0"
#25
b100 5
b100 +
03
1"
#26
0"
#27
b111 5
1"
#28
0"
#29
b0 5
b1100110 !
b1100110 1
1"
#30
0"
#31
1"
#32
0"
#33
b1111111 6
1"
#34
0"
#35
13
b111 +
12
b1111111 !
b1111111 1
1(
1*
b1111111 #
b1111111 '
0&
1"
#36
0"
#37
1&
1"
#38
0"
#39
b1 5
0%
1$
1"
#40
0"
#41
b10 5
0$
1"
#42
0"
#43
b100 5
1"
#44
0"
#45
b111 5
1"
#46
0"
#47
b0 5
1"
#48
0"
#49
1"
#50
0"
#51
b1111111 !
b1111111 1
0&
1"
#52
0"
#53
1&
1"
#54
0"
#55
b1 5
1%
1$
1"
#56
0"
#57
b10 5
b110 +
02
0$
1"
#58
0"
#59
b100 5
b100 +
03
1"
#60
0"
#61
b111 5
b0 +
04
1"
#62
0"
#63
b0 5
1"
#64
0"
#65
1"
#66
0"
#67
b1001100 6
1"
#68
0"
#69
b100 +
14
b1001100 !
b1001100 1
0(
0)
b1001100 #
b1001100 '
0&
1"
#70
0"
#71
1&
1"
#72
0"
#73
b1 5
0%
1$
1"
#74
0"
#75
b10 5
b101 +
12
0$
1"
#76
0"
#77
b100 5
b111 +
13
1"
#78
0"
#79
b111 5
1"
#80
0"
#81
b0 5
b1100 !
b1100 1
1"
#82
0"
#83
1"
#84
0"
#85
03
b100 +
02
b1001100 !
b1001100 1
0&
1"
#86
0"
#87
1&
1"
#88
0"
#89
b1 5
1%
1$
1"
#90
0"
#91
b10 5
0$
1"
#92
0"
#93
b100 5
1"
#94
0"
#95
b111 5
b0 +
04
1"
#96
0"
#97
b0 5
1"
